Quartus/counter/simulation/qsim/counter.msim.vcd
$comment
	File created using the following command:
		vcd file counter.msim.vcd -direction
$end
$date
	Sat Dec 13 20:39:32 2014
$end
$version
	ModelSim Version 10.1e
$end
$timescale
	1ps
$end
$scope module counter_vlg_vec_tst $end
$var reg 1 ! clk $end
$var reg 1 " reset $end
$var reg 1 # set $end
$var wire 1 $ C $end
$var wire 1 % Q [3] $end
$var wire 1 & Q [2] $end
$var wire 1 ' Q [1] $end
$var wire 1 ( Q [0] $end
$var wire 1 ) sampler $end
$scope module i1 $end
$var wire 1 * gnd $end
$var wire 1 + vcc $end
$var wire 1 , unknown $end
$var tri1 1 - devclrn $end
$var tri1 1 . devpor $end
$var tri1 1 / devoe $end
$var wire 1 0 Q[0]~output_o $end
$var wire 1 1 Q[1]~output_o $end
$var wire 1 2 Q[2]~output_o $end
$var wire 1 3 Q[3]~output_o $end
$var wire 1 4 C~output_o $end
$var wire 1 5 clk~input_o $end
$var wire 1 6 clk~inputclkctrl_outclk $end
$var wire 1 7 set~input_o $end
$var wire 1 8 QI[0]~0_combout $end
$var wire 1 9 reset~input_o $end
$var wire 1 : reset~inputclkctrl_outclk $end
$var wire 1 ; QI[1]~1_combout $end
$var wire 1 < QI[2]~2_combout $end
$var wire 1 = QI[3]~3_combout $end
$var wire 1 > QI[3]~4_combout $end
$var wire 1 ? Equal0~0_combout $end
$var wire 1 @ QI [3] $end
$var wire 1 A QI [2] $end
$var wire 1 B QI [1] $end
$var wire 1 C QI [0] $end
$upscope $end
$upscope $end
$enddefinitions $end
#0
$dumpvars
0!
0"
1#
0$
0(
0'
0&
0%
x)
0*
1+
x,
1-
1.
1/
00
01
02
03
04
05
06
17
18
09
0:
0;
0<
1=
0>
0?
0C
0B
0A
0@
$end
#25000
1!
15
16
0)
1C
1;
08
10
1(
#50000
0!
05
06
1)
#75000
1!
15
16
0)
1B
0C
18
11
00
1'
0(
#100000
0!
05
06
1)
#125000
1!
15
16
0)
1C
1<
0;
08
10
1(
#150000
0!
05
06
1)
#175000
1!
15
16
0)
1A
0B
0C
0=
18
12
01
00
1&
0'
0(
#200000
0!
05
06
1)
#225000
1!
15
16
0)
1C
1;
08
10
1(
#250000
0!
05
06
1)
#275000
1!
15
16
0)
1B
0C
18
11
00
1'
0(
#300000
0!
05
06
1)
#325000
1!
15
16
0)
1C
1>
0<
0;
08
10
1(
#350000
0!
05
06
1)
#375000
1!
15
16
0)
1@
0A
0B
0C
1=
18
13
02
01
00
1%
0&
0'
0(
#400000
0!
05
06
1)
#425000
1!
15
16
0)
1C
1;
08
10
1(
#450000
0!
05
06
1)
#475000
1!
15
16
0)
1B
0C
18
11
00
1'
0(
#500000
0!
05
06
1)
#525000
1!
15
16
0)
1C
1<
0;
08
10
1(
#550000
0!
05
06
1)
#575000
1!
15
16
0)
1A
0B
0C
0=
18
12
01
00
1&
0'
0(
#600000
0!
05
06
1)
#625000
1!
15
16
0)
1C
1;
08
10
1(
#650000
0!
05
06
1)
#675000
1!
15
16
0)
1B
0C
18
11
00
1'
0(
#700000
0!
05
06
1)
#725000
1!
15
16
0)
1C
0>
0<
0;
08
10
1(
1?
14
1$
#750000
0!
05
06
1)
#775000
1!
15
16
0)
0@
0A
0B
0C
1=
18
03
02
01
00
0%
0&
0'
0(
0?
04
0$
#800000
0!
05
06
1)
#825000
1!
15
16
0)
1C
1;
08
10
1(
#850000
0!
05
06
1)
#875000
1!
15
16
0)
1B
0C
18
11
00
1'
0(
#900000
0!
05
06
1)
#925000
1!
15
16
0)
1C
1<
0;
08
10
1(
#950000
0!
05
06
1)
#975000
1!
15
16
0)
1A
0B
0C
0=
18
12
01
00
1&
0'
0(
