Quartus/voter097/simulation/qsim/voter097.msim.vcd
$comment
	File created using the following command:
		vcd file voter097.msim.vcd -direction
$end
$date
	Tue Dec 09 11:25:42 2014
$end
$version
	ModelSim Version 10.1e
$end
$timescale
	1ps
$end
$scope module voter097_vlg_vec_tst $end
$var reg 1 ! A0 $end
$var reg 1 " A1 $end
$var reg 1 # A2 $end
$var reg 1 $ A3 $end
$var reg 1 % A4 $end
$var wire 1 & Y $end
$var wire 1 ' sampler $end
$scope module i1 $end
$var wire 1 ( gnd $end
$var wire 1 ) vcc $end
$var wire 1 * unknown $end
$var tri1 1 + devclrn $end
$var tri1 1 , devpor $end
$var tri1 1 - devoe $end
$var wire 1 . Y~output_o $end
$var wire 1 / A0~input_o $end
$var wire 1 0 A1~input_o $end
$var wire 1 1 A4~input_o $end
$var wire 1 2 A3~input_o $end
$var wire 1 3 LessThan0~0_combout $end
$var wire 1 4 A2~input_o $end
$var wire 1 5 LessThan0~1_combout $end
$var wire 1 6 LessThan0~2_combout $end
$upscope $end
$upscope $end
$enddefinitions $end
#0
$dumpvars
0!
0"
0#
0$
0%
0&
x'
0(
1)
x*
1+
1,
1-
0.
0/
00
01
02
03
04
05
06
$end
#50000
1!
1/
0'
#60000
1"
10
1'
13
#70000
1$
12
0'
15
03
16
1.
1&
#100000
0!
0/
1'
06
0.
0&
#120000
0"
00
0'
05
13
#140000
0$
02
1'
03
#150000
1!
1/
0'
#180000
1"
10
1'
13
#200000
0!
0/
0'
#210000
1$
12
1'
15
03
#240000
0"
00
0'
05
13
#250000
1!
1/
1'
#280000
0$
02
0'
03
#300000
1"
0!
10
0/
1'
13
#350000
1$
1!
12
1/
0'
15
03
16
1.
1&
#360000
0"
00
1'
05
13
06
0.
0&
#400000
0!
0/
0'
#420000
0$
1"
02
10
1'
#450000
1!
1/
0'
#480000
0"
00
1'
03
#490000
1$
12
0'
13
#500000
0!
0/
1'
#540000
1"
10
0'
15
03
#550000
1!
1/
1'
16
1.
1&
#560000
0$
02
0'
05
13
06
0.
0&
#600000
0"
0!
00
0/
1'
03
#630000
1$
12
0'
13
#650000
1!
1/
1'
#660000
1"
10
0'
15
03
16
1.
1&
#700000
0$
0!
02
0/
1'
05
13
06
0.
0&
#720000
0"
00
0'
03
#750000
1!
1/
1'
#770000
1$
12
0'
13
#780000
1"
10
1'
15
03
16
1.
1&
#800000
0!
0/
0'
06
0.
0&
#840000
0$
0"
02
00
1'
05
#850000
1!
1/
0'
#900000
1"
0!
10
0/
1'
13
#910000
1$
12
0'
15
03
#950000
1!
1/
1'
16
1.
1&
#960000
0"
00
0'
05
13
06
0.
0&
#980000
0$
02
1'
03
