Quartus/FrequencyDivision/simulation/qsim/FrequencyDivision.msim.vcd
$comment
	File created using the following command:
		vcd file FrequencyDivision.msim.vcd -direction
$end
$date
	Thu Dec 18 20:30:36 2014
$end
$version
	ModelSim Version 10.1e
$end
$timescale
	1ps
$end
$scope module FrequencyDivision097_vlg_vec_tst $end
$var reg 1 ! clk $end
$var reg 1 " treg_Q1 $end
$var wire 1 # Q1 $end
$var wire 1 $ Q2 $end
$var wire 1 % sampler $end
$scope module i1 $end
$var wire 1 & gnd $end
$var wire 1 ' vcc $end
$var wire 1 ( unknown $end
$var tri1 1 ) devclrn $end
$var tri1 1 * devpor $end
$var tri1 1 + devoe $end
$var wire 1 , Q1~input_o $end
$var wire 1 - Q1~output_o $end
$var wire 1 . Q2~output_o $end
$var wire 1 / clk~input_o $end
$var wire 1 0 QI~1_combout $end
$var wire 1 1 QI[2]~feeder_combout $end
$var wire 1 2 QI~2_combout $end
$var wire 1 3 QI[0]~feeder_combout $end
$var wire 1 4 QI~0_combout $end
$var wire 1 5 QI[1]~feeder_combout $end
$var wire 1 6 Equal0~0_combout $end
$var wire 1 7 Equal0~0clkctrl_outclk $end
$var wire 1 8 QX~0_combout $end
$var wire 1 9 QX~1_combout $end
$var wire 1 : Equal1~0_combout $end
$var wire 1 ; QX [3] $end
$var wire 1 < QX [2] $end
$var wire 1 = QX [1] $end
$var wire 1 > QX [0] $end
$var wire 1 ? QI [3] $end
$var wire 1 @ QI [2] $end
$var wire 1 A QI [1] $end
$var wire 1 B QI [0] $end
$upscope $end
$upscope $end
$enddefinitions $end
#0
$dumpvars
0!
z"
0#
0$
x%
0&
1'
x(
1)
1*
1+
0,
0-
0.
0/
00
01
12
13
04
05
06
07
08
19
0:
0>
0=
z<
z;
0B
0A
0@
z?
$end
#5000
1!
1/
0%
1B
14
02
15
03
#10000
0!
0/
1%
#15000
1!
1/
0%
1A
0B
12
13
#20000
0!
0/
1%
#25000
1!
1/
0%
1B
04
02
10
05
03
11
#30000
0!
0/
1%
#35000
1!
1/
0%
0A
0B
1@
12
13
#40000
0!
0/
1%
#45000
1!
1/
0%
1B
14
02
15
03
#50000
0!
0/
1%
#55000
1!
1/
0%
1A
0B
04
00
16
17
05
01
1-
1#
1,
1>
09
18
#60000
0!
0/
1%
#65000
1!
1/
0%
0A
0@
12
06
07
13
0-
0#
0,
#70000
0!
0/
1%
#75000
1!
1/
0%
1B
14
02
15
03
#80000
0!
0/
1%
#85000
1!
1/
0%
1A
0B
12
13
#90000
0!
0/
1%
#95000
1!
1/
0%
1B
04
02
10
05
03
11
#100000
0!
0/
1%
#105000
1!
1/
0%
0A
0B
1@
12
13
#110000
0!
0/
1%
#115000
1!
1/
0%
1B
14
02
15
03
#120000
0!
0/
1%
#125000
1!
1/
0%
1A
0B
04
00
16
17
05
01
1-
1#
1,
0>
1=
08
1:
1.
1$
#130000
0!
0/
1%
#135000
1!
1/
0%
0A
0@
12
06
07
13
0-
0#
0,
#140000
0!
0/
1%
#145000
1!
1/
0%
1B
14
02
15
03
#150000
0!
0/
1%
#155000
1!
1/
0%
1A
0B
12
13
#160000
0!
0/
1%
#165000
1!
1/
0%
1B
04
02
10
05
03
11
#170000
0!
0/
1%
#175000
1!
1/
0%
0A
0B
1@
12
13
#180000
0!
0/
1%
#185000
1!
1/
0%
1B
14
02
15
03
#190000
0!
0/
1%
#195000
1!
1/
0%
1A
0B
04
00
16
17
05
01
1-
1#
1,
0=
19
0:
0.
0$
#200000
0!
0/
1%
#205000
1!
1/
0%
0A
0@
12
06
07
13
0-
0#
0,
#210000
0!
0/
1%
#215000
1!
1/
0%
1B
14
02
15
03
#220000
0!
0/
1%
#225000
1!
1/
0%
1A
0B
12
13
#230000
0!
0/
1%
#235000
1!
1/
0%
1B
04
02
10
05
03
11
#240000
0!
0/
1%
#245000
1!
1/
0%
0A
0B
1@
12
13
#250000
0!
0/
1%
#255000
1!
1/
0%
1B
14
02
15
03
#260000
0!
0/
1%
#265000
1!
1/
0%
1A
0B
04
00
16
17
05
01
1-
1#
1,
1>
09
18
#270000
0!
0/
1%
#275000
1!
1/
0%
0A
0@
12
06
07
13
0-
0#
0,
#280000
0!
0/
1%
#285000
1!
1/
0%
1B
14
02
15
03
#290000
0!
0/
1%
#295000
1!
1/
0%
1A
0B
12
13
#300000
0!
0/
1%
#305000
1!
1/
0%
1B
04
02
10
05
03
11
#310000
0!
0/
1%
#315000
1!
1/
0%
0A
0B
1@
12
13
#320000
0!
0/
1%
#325000
1!
1/
0%
1B
14
02
15
03
#330000
0!
0/
1%
#335000
1!
1/
0%
1A
0B
04
00
16
17
05
01
1-
1#
1,
0>
1=
08
1:
1.
1$
#340000
0!
0/
1%
#345000
1!
1/
0%
0A
0@
12
06
07
13
0-
0#
0,
#350000
0!
0/
1%
#355000
1!
1/
0%
1B
14
02
15
03
#360000
0!
0/
1%
#365000
1!
1/
0%
1A
0B
12
13
#370000
0!
0/
1%
#375000
1!
1/
0%
1B
04
02
10
05
03
11
#380000
0!
0/
1%
#385000
1!
1/
0%
0A
0B
1@
12
13
#390000
0!
0/
1%
#395000
1!
1/
0%
1B
14
02
15
03
#400000
0!
0/
1%
#405000
1!
1/
0%
1A
0B
04
00
16
17
05
01
1-
1#
1,
0=
19
0:
0.
0$
#410000
0!
0/
1%
#415000
1!
1/
0%
0A
0@
12
06
07
13
0-
0#
0,
#420000
0!
0/
1%
#425000
1!
1/
0%
1B
14
02
15
03
#430000
0!
0/
1%
#435000
1!
1/
0%
1A
0B
12
13
#440000
0!
0/
1%
#445000
1!
1/
0%
1B
04
02
10
05
03
11
#450000
0!
0/
1%
#455000
1!
1/
0%
0A
0B
1@
12
13
#460000
0!
0/
1%
#465000
1!
1/
0%
1B
14
02
15
03
#470000
0!
0/
1%
#475000
1!
1/
0%
1A
0B
04
00
16
17
05
01
1-
1#
1,
1>
09
18
#480000
0!
0/
1%
#485000
1!
1/
0%
0A
0@
12
06
07
13
0-
0#
0,
#490000
0!
0/
1%
#495000
1!
1/
0%
1B
14
02
15
03
#500000
0!
0/
1%
#505000
1!
1/
0%
1A
0B
12
13
#510000
0!
0/
1%
#515000
1!
1/
0%
1B
04
02
10
05
03
11
#520000
0!
0/
1%
#525000
1!
1/
0%
0A
0B
1@
12
13
#530000
0!
0/
1%
#535000
1!
1/
0%
1B
14
02
15
03
#540000
0!
0/
1%
#545000
1!
1/
0%
1A
0B
04
00
16
17
05
01
1-
1#
1,
0>
1=
08
1:
1.
1$
#550000
0!
0/
1%
#555000
1!
1/
0%
0A
0@
12
06
07
13
0-
0#
0,
#560000
0!
0/
1%
#565000
1!
1/
0%
1B
14
02
15
03
#570000
0!
0/
1%
#575000
1!
1/
0%
1A
0B
12
13
#580000
0!
0/
1%
#585000
1!
1/
0%
1B
04
02
10
05
03
11
#590000
0!
0/
1%
#595000
1!
1/
0%
0A
0B
1@
12
13
#600000
0!
0/
1%
#605000
1!
1/
0%
1B
14
02
15
03
#610000
0!
0/
1%
#615000
1!
1/
0%
1A
0B
04
00
16
17
05
01
1-
1#
1,
0=
19
0:
0.
0$
#620000
0!
0/
1%
#625000
1!
1/
0%
0A
0@
12
06
07
13
0-
0#
0,
#630000
0!
0/
1%
#635000
1!
1/
0%
1B
14
02
15
03
#640000
0!
0/
1%
#645000
1!
1/
0%
1A
0B
12
13
#650000
0!
0/
1%
#655000
1!
1/
0%
1B
04
02
10
05
03
11
#660000
0!
0/
1%
#665000
1!
1/
0%
0A
0B
1@
12
13
#670000
0!
0/
1%
#675000
1!
1/
0%
1B
14
02
15
03
#680000
0!
0/
1%
#685000
1!
1/
0%
1A
0B
04
00
16
17
05
01
1-
1#
1,
1>
09
18
#690000
0!
0/
1%
#695000
1!
1/
0%
0A
0@
12
06
07
13
0-
0#
0,
#700000
0!
0/
1%
#705000
1!
1/
0%
1B
14
02
15
03
#710000
0!
0/
1%
#715000
1!
1/
0%
1A
0B
12
13
#720000
0!
0/
1%
#725000
1!
1/
0%
1B
04
02
10
05
03
11
#730000
0!
0/
1%
#735000
1!
1/
0%
0A
0B
1@
12
13
#740000
0!
0/
1%
#745000
1!
1/
0%
1B
14
02
15
03
#750000
0!
0/
1%
#755000
1!
1/
0%
1A
0B
04
00
16
17
05
01
1-
1#
1,
0>
1=
08
1:
1.
1$
#760000
0!
0/
1%
#765000
1!
1/
0%
0A
0@
12
06
07
13
0-
0#
0,
#770000
0!
0/
1%
#775000
1!
1/
0%
1B
14
02
15
03
#780000
0!
0/
1%
#785000
1!
1/
0%
1A
0B
12
13
#790000
0!
0/
1%
#795000
1!
1/
0%
1B
04
02
10
05
03
11
#800000
0!
0/
1%
#805000
1!
1/
0%
0A
0B
1@
12
13
#810000
0!
0/
1%
#815000
1!
1/
0%
1B
14
02
15
03
#820000
0!
0/
1%
#825000
1!
1/
0%
1A
0B
04
00
16
17
05
01
1-
1#
1,
0=
19
0:
0.
0$
#830000
0!
0/
1%
#835000
1!
1/
0%
0A
0@
12
06
07
13
0-
0#
0,
#840000
0!
0/
1%
#845000
1!
1/
0%
1B
14
02
15
03
#850000
0!
0/
1%
#855000
1!
1/
0%
1A
0B
12
13
#860000
0!
0/
1%
#865000
1!
1/
0%
1B
04
02
10
05
03
11
#870000
0!
0/
1%
#875000
1!
1/
0%
0A
0B
1@
12
13
#880000
0!
0/
1%
#885000
1!
1/
0%
1B
14
02
15
03
#890000
0!
0/
1%
#895000
1!
1/
0%
1A
0B
04
00
16
17
05
01
1-
1#
1,
1>
09
18
#900000
0!
0/
1%
#905000
1!
1/
0%
0A
0@
12
06
07
13
0-
0#
0,
#910000
0!
0/
1%
#915000
1!
1/
0%
1B
14
02
15
03
#920000
0!
0/
1%
#925000
1!
1/
0%
1A
0B
12
13
#930000
0!
0/
1%
#935000
1!
1/
0%
1B
04
02
10
05
03
11
#940000
0!
0/
1%
#945000
1!
1/
0%
0A
0B
1@
12
13
#950000
0!
0/
1%
#955000
1!
1/
0%
1B
14
02
15
03
#960000
0!
0/
1%
#965000
1!
1/
0%
1A
0B
04
00
16
17
05
01
1-
1#
1,
0>
1=
08
1:
1.
1$
#970000
0!
0/
1%
#975000
1!
1/
0%
0A
0@
12
06
07
13
0-
0#
0,
#980000
0!
0/
1%
#985000
1!
1/
0%
1B
14
02
15
03
#990000
0!
0/
1%
#995000
1!
1/
0%
1A
0B
12
13
