Quartus/gate/simulation/qsim/gate.msim.vcd
$comment
	File created using the following command:
		vcd file gate.msim.vcd -direction
$end
$date
	Sat Dec 13 20:43:33 2014
$end
$version
	ModelSim Version 10.1e
$end
$timescale
	1ps
$end
$scope module gate_vlg_vec_tst $end
$var reg 1 ! a $end
$var reg 1 " b $end
$var reg 1 # c $end
$var reg 1 $ d $end
$var wire 1 % e $end
$var wire 1 & sampler $end
$scope module i1 $end
$var wire 1 ' gnd $end
$var wire 1 ( vcc $end
$var wire 1 ) unknown $end
$var tri1 1 * devclrn $end
$var tri1 1 + devpor $end
$var tri1 1 , devoe $end
$var wire 1 - e~output_o $end
$var wire 1 . c~input_o $end
$var wire 1 / d~input_o $end
$var wire 1 0 a~input_o $end
$var wire 1 1 b~input_o $end
$var wire 1 2 u3|c_nand~0_combout $end
$upscope $end
$upscope $end
$enddefinitions $end
#0
$dumpvars
0!
1"
0#
0$
1%
x&
0'
1(
x)
1*
1+
1,
1-
0.
0/
00
11
02
$end
#25000
1!
1$
10
1/
0&
12
0-
0%
#50000
0!
0$
00
0/
1&
02
1-
1%
#75000
1!
1$
10
1/
0&
12
0-
0%
#100000
0!
0$
00
0/
1&
02
1-
1%
#125000
1!
1$
10
1/
0&
12
0-
0%
#150000
0!
0$
00
0/
1&
02
1-
1%
#175000
1!
1$
10
1/
0&
12
0-
0%
#200000
0!
0$
00
0/
1&
02
1-
1%
#225000
1!
1$
10
1/
0&
12
0-
0%
#250000
0!
0$
00
0/
1&
02
1-
1%
#275000
1!
1$
10
1/
0&
12
0-
0%
#300000
0!
0$
00
0/
1&
02
1-
1%
#325000
1!
1$
10
1/
0&
12
0-
0%
#350000
0!
0$
00
0/
1&
02
1-
1%
#375000
1!
1$
10
1/
0&
12
0-
0%
#400000
0!
0$
00
0/
1&
02
1-
1%
#425000
1!
1$
10
1/
0&
12
0-
0%
#450000
0!
0$
00
0/
1&
02
1-
1%
#475000
1!
1$
10
1/
0&
12
0-
0%
#500000
0!
0$
00
0/
1&
02
1-
1%
#525000
1!
1$
10
1/
0&
12
0-
0%
#550000
0!
0$
00
0/
1&
02
1-
1%
#575000
1!
1$
10
1/
0&
12
0-
0%
#600000
0!
0$
00
0/
1&
02
1-
1%
#625000
1!
1$
10
1/
0&
12
0-
0%
#650000
0!
0$
00
0/
1&
02
1-
1%
#675000
1!
1$
10
1/
0&
12
0-
0%
#700000
0!
0$
00
0/
1&
02
1-
1%
#725000
1!
1$
10
1/
0&
12
0-
0%
#750000
0!
0$
00
0/
1&
02
1-
1%
#775000
1!
1$
10
1/
0&
12
0-
0%
#800000
0!
0$
00
0/
1&
02
1-
1%
#825000
1!
1$
10
1/
0&
12
0-
0%
#850000
0!
0$
00
0/
1&
02
1-
1%
#875000
1!
1$
10
1/
0&
12
0-
0%
#900000
0!
0$
00
0/
1&
02
1-
1%
#925000
1!
1$
10
1/
0&
12
0-
0%
#950000
0!
0$
00
0/
1&
02
1-
1%
#975000
1!
1$
10
1/
0&
12
0-
0%
