Quartus/Clock097/simulation/qsim/Clock_097.msim.vcd
$comment
	File created using the following command:
		vcd file Clock_097.msim.vcd -direction
$end
$date
	Sat Dec 27 21:23:30 2014
$end
$version
	ModelSim Version 10.1e
$end
$timescale
	1ps
$end
$scope module Clock_097_vlg_vec_tst $end
$var reg 1 ! clk $end
$var wire 1 " hout [4] $end
$var wire 1 # hout [3] $end
$var wire 1 $ hout [2] $end
$var wire 1 % hout [1] $end
$var wire 1 & hout [0] $end
$var wire 1 ' mout [5] $end
$var wire 1 ( mout [4] $end
$var wire 1 ) mout [3] $end
$var wire 1 * mout [2] $end
$var wire 1 + mout [1] $end
$var wire 1 , mout [0] $end
$var wire 1 - sout [5] $end
$var wire 1 . sout [4] $end
$var wire 1 / sout [3] $end
$var wire 1 0 sout [2] $end
$var wire 1 1 sout [1] $end
$var wire 1 2 sout [0] $end
$var wire 1 3 sampler $end
$scope module i1 $end
$var wire 1 4 gnd $end
$var wire 1 5 vcc $end
$var wire 1 6 unknown $end
$var tri1 1 7 devclrn $end
$var tri1 1 8 devpor $end
$var tri1 1 9 devoe $end
$var wire 1 : sout[0]~output_o $end
$var wire 1 ; sout[1]~output_o $end
$var wire 1 < sout[2]~output_o $end
$var wire 1 = sout[3]~output_o $end
$var wire 1 > sout[4]~output_o $end
$var wire 1 ? sout[5]~output_o $end
$var wire 1 @ mout[0]~output_o $end
$var wire 1 A mout[1]~output_o $end
$var wire 1 B mout[2]~output_o $end
$var wire 1 C mout[3]~output_o $end
$var wire 1 D mout[4]~output_o $end
$var wire 1 E mout[5]~output_o $end
$var wire 1 F hout[0]~output_o $end
$var wire 1 G hout[1]~output_o $end
$var wire 1 H hout[2]~output_o $end
$var wire 1 I hout[3]~output_o $end
$var wire 1 J hout[4]~output_o $end
$var wire 1 K clk~input_o $end
$var wire 1 L clk~inputclkctrl_outclk $end
$var wire 1 M Add0~0_combout $end
$var wire 1 N Add0~1 $end
$var wire 1 O Add0~2_combout $end
$var wire 1 P Add0~3 $end
$var wire 1 Q Add0~5 $end
$var wire 1 R Add0~6_combout $end
$var wire 1 S s~1_combout $end
$var wire 1 T Equal0~0_combout $end
$var wire 1 U Add0~7 $end
$var wire 1 V Add0~9 $end
$var wire 1 W Add0~10_combout $end
$var wire 1 X s~3_combout $end
$var wire 1 Y Add0~8_combout $end
$var wire 1 Z s~2_combout $end
$var wire 1 [ Add0~4_combout $end
$var wire 1 \ s~0_combout $end
$var wire 1 ] Equal0~1_combout $end
$var wire 1 ^ sc~q $end
$var wire 1 _ sc~clkctrl_outclk $end
$var wire 1 ` Add1~0_combout $end
$var wire 1 a Add1~1 $end
$var wire 1 b Add1~2_combout $end
$var wire 1 c Add1~3 $end
$var wire 1 d Add1~4_combout $end
$var wire 1 e Add1~5 $end
$var wire 1 f Add1~6_combout $end
$var wire 1 g m~1_combout $end
$var wire 1 h Add1~7 $end
$var wire 1 i Add1~8_combout $end
$var wire 1 j m~2_combout $end
$var wire 1 k Add1~9 $end
$var wire 1 l Add1~10_combout $end
$var wire 1 m m~3_combout $end
$var wire 1 n Equal1~0_combout $end
$var wire 1 o m~0_combout $end
$var wire 1 p Equal1~1_combout $end
$var wire 1 q mc~q $end
$var wire 1 r mc~clkctrl_outclk $end
$var wire 1 s Add2~0_combout $end
$var wire 1 t Add2~1 $end
$var wire 1 u Add2~2_combout $end
$var wire 1 v Add2~3 $end
$var wire 1 w Add2~4_combout $end
$var wire 1 x Add2~5 $end
$var wire 1 y Add2~7 $end
$var wire 1 z Add2~8_combout $end
$var wire 1 { h~1_combout $end
$var wire 1 | Equal2~0_combout $end
$var wire 1 } Add2~6_combout $end
$var wire 1 ~ h~0_combout $end
$var wire 1 !! m [5] $end
$var wire 1 "! m [4] $end
$var wire 1 #! m [3] $end
$var wire 1 $! m [2] $end
$var wire 1 %! m [1] $end
$var wire 1 &! m [0] $end
$var wire 1 '! s [5] $end
$var wire 1 (! s [4] $end
$var wire 1 )! s [3] $end
$var wire 1 *! s [2] $end
$var wire 1 +! s [1] $end
$var wire 1 ,! s [0] $end
$var wire 1 -! h [4] $end
$var wire 1 .! h [3] $end
$var wire 1 /! h [2] $end
$var wire 1 0! h [1] $end
$var wire 1 1! h [0] $end
$upscope $end
$upscope $end
$enddefinitions $end
#0
$dumpvars
0!
0&
0%
0$
0#
0"
0,
0+
0*
0)
0(
0'
02
01
00
0/
0.
0-
x3
04
15
x6
17
18
19
0:
0;
0<
0=
0>
0?
0@
0A
0B
0C
0D
0E
0F
0G
0H
0I
0J
0K
0L
1M
0N
0O
1P
0Q
0R
0S
0T
1U
0V
0W
0X
0Y
0Z
0[
0\
0]
0^
0_
1`
0a
0b
1c
0d
0e
0f
0g
1h
0i
0j
0k
0l
0m
0n
0o
0p
0q
0r
1s
0t
0u
1v
0w
0x
1y
0z
0{
0|
0}
0~
0&!
0%!
0$!
0#!
0"!
0!!
0,!
0+!
0*!
0)!
0(!
0'!
01!
00!
0/!
0.!
0-!
$end
#5000
1!
1K
1L
03
1,!
1N
0M
1:
12
1O
#10000
0!
0K
0L
13
#15000
1!
1K
1L
03
1+!
0,!
0P
0O
0N
1M
1;
0:
11
02
1[
1P
1O
1\
0[
0\
#20000
0!
0K
0L
13
#25000
1!
1K
1L
03
1,!
1N
0M
1:
12
0P
0O
1[
1\
#30000
0!
0K
0L
13
#35000
1!
1K
1L
03
1*!
0+!
0,!
1Q
0[
1P
1O
0N
1M
1<
0;
0:
10
01
02
1R
0\
0Q
1[
0O
1S
0R
1\
0S
#40000
0!
0K
0L
13
#45000
1!
1K
1L
03
1,!
1N
0M
1:
12
1O
#50000
0!
0K
0L
13
#55000
1!
1K
1L
03
1+!
0,!
0P
0O
0N
1M
1;
0:
11
02
1Q
0[
1P
1O
1R
0\
0Q
1[
1S
0R
1\
0S
#60000
0!
0K
0L
13
#65000
1!
1K
1L
03
1,!
1N
0M
1:
12
0P
0O
1Q
0[
1R
0\
1S
#70000
0!
0K
0L
13
#75000
1!
1K
1L
03
0*!
1)!
0+!
0,!
0Q
1[
0U
0R
1P
1O
0N
1M
0<
1=
0;
0:
00
1/
01
02
1U
1R
1\
1Y
0S
0[
0O
0Y
1S
1Z
0\
0Z
#80000
0!
0K
0L
13
#85000
1!
1K
1L
03
1,!
1N
0M
1:
12
1O
#90000
0!
0K
0L
13
#95000
1!
1K
1L
03
1+!
0,!
0P
0O
0N
1M
1;
0:
11
02
1[
1P
1O
1\
0[
0\
#100000
0!
0K
0L
13
#105000
1!
1K
1L
03
1,!
1T
1N
0M
1:
12
0P
0O
1[
1\
#110000
0!
0K
0L
13
#115000
1!
1K
1L
03
1*!
0+!
0,!
0T
1Q
0[
1P
1O
0N
1M
1<
0;
0:
10
01
02
0\
0U
0R
0Q
1[
0O
1Y
0S
1U
1R
1\
1Z
0Y
1S
0Z
#120000
0!
0K
0L
13
#125000
1!
1K
1L
03
1,!
1N
0M
1:
12
1O
#130000
0!
0K
0L
13
#135000
1!
1K
1L
03
1+!
0,!
0P
0O
0N
1M
1;
0:
11
02
1Q
0[
1P
1O
0U
0R
0\
0Q
1[
1Y
0S
1U
1R
1\
1Z
0Y
1S
0Z
#140000
0!
0K
0L
13
#145000
1!
1K
1L
03
1,!
1N
0M
1:
12
0P
0O
1Q
0[
0U
0R
0\
1Y
0S
1Z
#150000
0!
0K
0L
13
#155000
1!
1K
1L
03
0*!
1(!
0)!
0+!
0,!
0Q
1[
1V
0Y
1U
1R
1P
1O
0N
1M
0<
1>
0=
0;
0:
00
1.
0/
01
02
0R
1\
1W
0Z
0V
1Y
1S
0[
0O
0S
1X
0W
1Z
0\
0X
#160000
0!
0K
0L
13
#165000
1!
1K
1L
03
1,!
1N
0M
1:
12
1O
#170000
0!
0K
0L
13
#175000
1!
1K
1L
03
1+!
0,!
0P
0O
0N
1M
1;
0:
11
02
1[
1P
1O
1\
0[
0\
#180000
0!
0K
0L
13
#185000
1!
1K
1L
03
1,!
1N
0M
1:
12
0P
0O
1[
1\
#190000
0!
0K
0L
13
#195000
1!
1K
1L
03
1*!
0+!
0,!
1Q
0[
1P
1O
0N
1M
1<
0;
0:
10
01
02
1R
0\
0Q
1[
0O
1S
0R
1\
0S
#200000
0!
0K
0L
13
#205000
1!
1K
1L
03
1,!
1N
0M
1:
12
1O
#210000
0!
0K
0L
13
#215000
1!
1K
1L
03
1+!
0,!
0P
0O
0N
1M
1;
0:
11
02
1Q
0[
1P
1O
1R
0\
0Q
1[
1S
0R
1\
0S
#220000
0!
0K
0L
13
#225000
1!
1K
1L
03
1,!
1N
0M
1:
12
0P
0O
1Q
0[
1R
0\
1S
#230000
0!
0K
0L
13
#235000
1!
1K
1L
03
0*!
1)!
0+!
0,!
0Q
1[
0U
0R
1P
1O
0N
1M
0<
1=
0;
0:
00
1/
01
02
1U
1R
1\
1V
0Y
0S
0[
0O
0V
1Y
1S
1W
0Z
0\
0W
1Z
1X
0X
#240000
0!
0K
0L
13
#245000
1!
1K
1L
03
1,!
1N
0M
1:
12
1O
#250000
0!
0K
0L
13
#255000
1!
1K
1L
03
1+!
0,!
0P
0O
0N
1M
1;
0:
11
02
1[
1P
1O
1\
0[
0\
#260000
0!
0K
0L
13
#265000
1!
1K
1L
03
1,!
1T
1N
0M
1:
12
0P
0O
1[
1\
#270000
0!
0K
0L
13
#275000
1!
1K
1L
03
1*!
0+!
0,!
0T
1Q
0[
1P
1O
0N
1M
1<
0;
0:
10
01
02
0\
0U
0R
0Q
1[
0O
1V
0Y
0S
1U
1R
1\
1W
0Z
0V
1Y
1S
1X
0W
1Z
0X
#280000
0!
0K
0L
13
#285000
1!
1K
1L
03
1,!
1N
0M
1:
12
1O
#290000
0!
0K
0L
13
#295000
1!
1K
1L
03
1+!
0,!
0P
0O
0N
1M
1;
0:
11
02
1Q
0[
1P
1O
0U
0R
0\
0Q
1[
1V
0Y
0S
1U
1R
1\
1W
0Z
0V
1Y
1S
1X
0W
1Z
0X
#300000
0!
0K
0L
13
#305000
1!
1K
1L
03
1,!
1N
0M
1:
12
0P
0O
1Q
0[
0U
0R
0\
1V
0Y
0S
1W
0Z
1X
#310000
0!
0K
0L
13
#315000
1!
1K
1L
03
0*!
0(!
1'!
0)!
0+!
0,!
0Q
1[
0V
1Y
0W
1U
1R
1P
1O
0N
1M
0<
0>
1?
0=
0;
0:
00
0.
1-
0/
01
02
0R
1\
1W
1Z
0X
0Y
1S
0[
0O
0S
1X
0Z
0\
#320000
0!
0K
0L
13
#325000
1!
1K
1L
03
1,!
1N
0M
1:
12
1O
#330000
0!
0K
0L
13
#335000
1!
1K
1L
03
1+!
0,!
0P
0O
0N
1M
1;
0:
11
02
1[
1P
1O
1\
0[
0\
#340000
0!
0K
0L
13
#345000
1!
1K
1L
03
1,!
1N
0M
1:
12
0P
0O
1[
1\
#350000
0!
0K
0L
13
#355000
1!
1K
1L
03
1*!
0+!
0,!
1Q
0[
1P
1O
0N
1M
1<
0;
0:
10
01
02
1R
0\
0Q
1[
0O
1S
0R
1\
0S
#360000
0!
0K
0L
13
#365000
1!
1K
1L
03
1,!
1N
0M
1:
12
1O
#370000
0!
0K
0L
13
#375000
1!
1K
1L
03
1+!
0,!
0P
0O
0N
1M
1;
0:
11
02
1Q
0[
1P
1O
1R
0\
0Q
1[
1S
0R
1\
0S
#380000
0!
0K
0L
13
#385000
1!
1K
1L
03
1,!
1N
0M
1:
12
0P
0O
1Q
0[
1R
0\
1S
#390000
0!
0K
0L
13
#395000
1!
1K
1L
03
0*!
1)!
0+!
0,!
0Q
1[
0U
0R
1P
1O
0N
1M
0<
1=
0;
0:
00
1/
01
02
1U
1R
1\
1Y
0S
0[
0O
0Y
1S
1Z
0\
0Z
#400000
0!
0K
0L
13
#405000
1!
1K
1L
03
1,!
1N
0M
1:
12
1O
#410000
0!
0K
0L
13
#415000
1!
1K
1L
03
1+!
0,!
0P
0O
0N
1M
1;
0:
11
02
1[
1P
1O
1\
0[
0\
#420000
0!
0K
0L
13
#425000
1!
1K
1L
03
1,!
1T
1N
0M
1:
12
0P
0O
1[
1\
#430000
0!
0K
0L
13
#435000
1!
1K
1L
03
1*!
0+!
0,!
0T
1Q
0[
1P
1O
0N
1M
1<
0;
0:
10
01
02
0\
0U
0R
0Q
1[
0O
1Y
0S
1U
1R
1\
1Z
0Y
1S
0Z
#440000
0!
0K
0L
13
#445000
1!
1K
1L
03
1,!
1N
0M
1:
12
1O
#450000
0!
0K
0L
13
#455000
1!
1K
1L
03
1+!
0,!
0P
0O
0N
1M
1;
0:
11
02
1Q
0[
1P
1O
0U
0R
0\
0Q
1[
1Y
0S
1U
1R
1\
1Z
0Y
1S
0Z
#460000
0!
0K
0L
13
#465000
1!
1K
1L
03
1,!
1N
0M
1:
12
0P
0O
1Q
0[
0U
0R
0\
1Y
0S
1Z
#470000
0!
0K
0L
13
#475000
1!
1K
1L
03
0*!
1(!
0)!
0+!
0,!
0Q
1[
1V
0Y
1U
1R
1P
1O
0N
1M
0<
1>
0=
0;
0:
00
1.
0/
01
02
0R
1\
0W
0Z
0V
1Y
1S
0[
0O
0S
0X
1W
1Z
0\
1X
#480000
0!
0K
0L
13
#485000
1!
1K
1L
03
1,!
1N
0M
1:
12
1O
#490000
0!
0K
0L
13
#495000
1!
1K
1L
03
1+!
0,!
0P
0O
0N
1M
1;
0:
11
02
1[
1P
1O
1\
0[
0\
#500000
0!
0K
0L
13
#505000
1!
1K
1L
03
1,!
1N
0M
1:
12
0P
0O
1[
1\
#510000
0!
0K
0L
13
#515000
1!
1K
1L
03
1*!
0+!
0,!
1Q
0[
1P
1O
0N
1M
1<
0;
0:
10
01
02
1R
0\
0Q
1[
0O
1S
0R
1\
0S
#520000
0!
0K
0L
13
#525000
1!
1K
1L
03
1,!
1N
0M
1:
12
1O
#530000
0!
0K
0L
13
#535000
1!
1K
1L
03
1+!
0,!
0P
0O
0N
1M
1;
0:
11
02
1Q
0[
1P
1O
1R
0\
0Q
1[
1S
0R
1\
0S
#540000
0!
0K
0L
13
#545000
1!
1K
1L
03
1,!
1N
0M
1:
12
0P
0O
1Q
0[
1R
0\
1S
#550000
0!
0K
0L
13
#555000
1!
1K
1L
03
0*!
1)!
0+!
0,!
0Q
1[
0U
0R
1P
1O
0N
1M
0<
1=
0;
0:
00
1/
01
02
1U
1R
1\
1V
0Y
0S
0[
0O
0V
1Y
1S
0W
0Z
0\
1W
1Z
0X
1X
#560000
0!
0K
0L
13
#565000
1!
1K
1L
03
1,!
1N
0M
1:
12
1O
#570000
0!
0K
0L
13
#575000
1!
1K
1L
03
1+!
0,!
0P
0O
0N
1M
1;
0:
11
02
1[
1P
1O
1\
0[
0\
#580000
0!
0K
0L
13
#585000
1!
1K
1L
03
1,!
1T
1N
0M
1:
12
1]
0Z
0X
0S
0P
0O
1[
#590000
0!
0K
0L
13
#595000
1!
1K
1L
03
1^
1_
0(!
0'!
0)!
0+!
0,!
0]
1\
1Z
1X
0Y
1S
0W
0T
0R
1P
1O
0N
1M
0>
0?
0=
0;
0:
0.
0-
0/
01
02
0Z
0X
0S
0[
0O
0\
1&!
1a
0`
1@
1,
1b
#600000
0!
0K
0L
13
#605000
1!
1K
1L
03
0^
0_
1,!
1N
0M
1:
12
1O
#610000
0!
0K
0L
13
#615000
1!
1K
1L
03
1+!
0,!
0P
0O
0N
1M
1;
0:
11
02
1[
1P
1O
1\
0[
0\
#620000
0!
0K
0L
13
#625000
1!
1K
1L
03
1,!
1N
0M
1:
12
0P
0O
1[
1\
#630000
0!
0K
0L
13
#635000
1!
1K
1L
03
1*!
0+!
0,!
1Q
0[
1P
1O
0N
1M
1<
0;
0:
10
01
02
1R
0\
0Q
1[
0O
1S
0R
1\
0S
#640000
0!
0K
0L
13
#645000
1!
1K
1L
03
1,!
1N
0M
1:
12
1O
#650000
0!
0K
0L
13
#655000
1!
1K
1L
03
1+!
0,!
0P
0O
0N
1M
1;
0:
11
02
1Q
0[
1P
1O
1R
0\
0Q
1[
1S
0R
1\
0S
#660000
0!
0K
0L
13
#665000
1!
1K
1L
03
1,!
1N
0M
1:
12
0P
0O
1Q
0[
1R
0\
1S
#670000
0!
0K
0L
13
#675000
1!
1K
1L
03
0*!
1)!
0+!
0,!
0Q
1[
0U
0R
1P
1O
0N
1M
0<
1=
0;
0:
00
1/
01
02
1U
1R
1\
1Y
0S
0[
0O
0Y
1S
1Z
0\
0Z
#680000
0!
0K
0L
13
#685000
1!
1K
1L
03
1,!
1N
0M
1:
12
1O
#690000
0!
0K
0L
13
#695000
1!
1K
1L
03
1+!
0,!
0P
0O
0N
1M
1;
0:
11
02
1[
1P
1O
1\
0[
0\
#700000
0!
0K
0L
13
#705000
1!
1K
1L
03
1,!
1T
1N
0M
1:
12
0P
0O
1[
1\
#710000
0!
0K
0L
13
#715000
1!
1K
1L
03
1*!
0+!
0,!
0T
1Q
0[
1P
1O
0N
1M
1<
0;
0:
10
01
02
0\
0U
0R
0Q
1[
0O
1Y
0S
1U
1R
1\
1Z
0Y
1S
0Z
#720000
0!
0K
0L
13
#725000
1!
1K
1L
03
1,!
1N
0M
1:
12
1O
#730000
0!
0K
0L
13
#735000
1!
1K
1L
03
1+!
0,!
0P
0O
0N
1M
1;
0:
11
02
1Q
0[
1P
1O
0U
0R
0\
0Q
1[
1Y
0S
1U
1R
1\
1Z
0Y
1S
0Z
#740000
0!
0K
0L
13
#745000
1!
1K
1L
03
1,!
1N
0M
1:
12
0P
0O
1Q
0[
0U
0R
0\
1Y
0S
1Z
#750000
0!
0K
0L
13
#755000
1!
1K
1L
03
0*!
1(!
0)!
0+!
0,!
0Q
1[
1V
0Y
1U
1R
1P
1O
0N
1M
0<
1>
0=
0;
0:
00
1.
0/
01
02
0R
1\
1W
0Z
0V
1Y
1S
0[
0O
0S
1X
0W
1Z
0\
0X
#760000
0!
0K
0L
13
#765000
1!
1K
1L
03
1,!
1N
0M
1:
12
1O
#770000
0!
0K
0L
13
#775000
1!
1K
1L
03
1+!
0,!
0P
0O
0N
1M
1;
0:
11
02
1[
1P
1O
1\
0[
0\
#780000
0!
0K
0L
13
#785000
1!
1K
1L
03
1,!
1N
0M
1:
12
0P
0O
1[
1\
#790000
0!
0K
0L
13
#795000
1!
1K
1L
03
1*!
0+!
0,!
1Q
0[
1P
1O
0N
1M
1<
0;
0:
10
01
02
1R
0\
0Q
1[
0O
1S
0R
1\
0S
#800000
0!
0K
0L
13
#805000
1!
1K
1L
03
1,!
1N
0M
1:
12
1O
#810000
0!
0K
0L
13
#815000
1!
1K
1L
03
1+!
0,!
0P
0O
0N
1M
1;
0:
11
02
1Q
0[
1P
1O
1R
0\
0Q
1[
1S
0R
1\
0S
#820000
0!
0K
0L
13
#825000
1!
1K
1L
03
1,!
1N
0M
1:
12
0P
0O
1Q
0[
1R
0\
1S
#830000
0!
0K
0L
13
#835000
1!
1K
1L
03
0*!
1)!
0+!
0,!
0Q
1[
0U
0R
1P
1O
0N
1M
0<
1=
0;
0:
00
1/
01
02
1U
1R
1\
1V
0Y
0S
0[
0O
0V
1Y
1S
1W
0Z
0\
0W
1Z
1X
0X
#840000
0!
0K
0L
13
#845000
1!
1K
1L
03
1,!
1N
0M
1:
12
1O
#850000
0!
0K
0L
13
#855000
1!
1K
1L
03
1+!
0,!
0P
0O
0N
1M
1;
0:
11
02
1[
1P
1O
1\
0[
0\
#860000
0!
0K
0L
13
#865000
1!
1K
1L
03
1,!
1T
1N
0M
1:
12
0P
0O
1[
1\
#870000
0!
0K
0L
13
#875000
1!
1K
1L
03
1*!
0+!
0,!
0T
1Q
0[
1P
1O
0N
1M
1<
0;
0:
10
01
02
0\
0U
0R
0Q
1[
0O
1V
0Y
0S
1U
1R
1\
1W
0Z
0V
1Y
1S
1X
0W
1Z
0X
#880000
0!
0K
0L
13
#885000
1!
1K
1L
03
1,!
1N
0M
1:
12
1O
#890000
0!
0K
0L
13
#895000
1!
1K
1L
03
1+!
0,!
0P
0O
0N
1M
1;
0:
11
02
1Q
0[
1P
1O
0U
0R
0\
0Q
1[
1V
0Y
0S
1U
1R
1\
1W
0Z
0V
1Y
1S
1X
0W
1Z
0X
#900000
0!
0K
0L
13
#905000
1!
1K
1L
03
1,!
1N
0M
1:
12
0P
0O
1Q
0[
0U
0R
0\
1V
0Y
0S
1W
0Z
1X
#910000
0!
0K
0L
13
#915000
1!
1K
1L
03
0*!
0(!
1'!
0)!
0+!
0,!
0Q
1[
0V
1Y
0W
1U
1R
1P
1O
0N
1M
0<
0>
1?
0=
0;
0:
00
0.
1-
0/
01
02
0R
1\
1W
1Z
0X
0Y
1S
0[
0O
0S
1X
0Z
0\
#920000
0!
0K
0L
13
#925000
1!
1K
1L
03
1,!
1N
0M
1:
12
1O
#930000
0!
0K
0L
13
#935000
1!
1K
1L
03
1+!
0,!
0P
0O
0N
1M
1;
0:
11
02
1[
1P
1O
1\
0[
0\
#940000
0!
0K
0L
13
#945000
1!
1K
1L
03
1,!
1N
0M
1:
12
0P
0O
1[
1\
#950000
0!
0K
0L
13
#955000
1!
1K
1L
03
1*!
0+!
0,!
1Q
0[
1P
1O
0N
1M
1<
0;
0:
10
01
02
1R
0\
0Q
1[
0O
1S
0R
1\
0S
#960000
0!
0K
0L
13
#965000
1!
1K
1L
03
1,!
1N
0M
1:
12
1O
#970000
0!
0K
0L
13
#975000
1!
1K
1L
03
1+!
0,!
0P
0O
0N
1M
1;
0:
11
02
1Q
0[
1P
1O
1R
0\
0Q
1[
1S
0R
1\
0S
#980000
0!
0K
0L
13
#985000
1!
1K
1L
03
1,!
1N
0M
1:
12
0P
0O
1Q
0[
1R
0\
1S
#990000
0!
0K
0L
13
#995000
1!
1K
1L
03
0*!
1)!
0+!
0,!
0Q
1[
0U
0R
1P
1O
0N
1M
0<
1=
0;
0:
00
1/
01
02
1U
1R
1\
1Y
0S
0[
0O
0Y
1S
1Z
0\
0Z
