Quartus/gate097/simulation/qsim/gate097.msim.vcd
$comment
	File created using the following command:
		vcd file gate097.msim.vcd -direction
$end
$date
	Sat Dec 13 20:26:36 2014
$end
$version
	ModelSim Version 10.1e
$end
$timescale
	1ps
$end
$scope module gate097_vlg_vec_tst $end
$var reg 1 ! a $end
$var reg 1 " b $end
$var reg 1 # c $end
$var reg 1 $ d $end
$var wire 1 % e $end
$var wire 1 & sampler $end
$scope module i1 $end
$var wire 1 ' gnd $end
$var wire 1 ( vcc $end
$var wire 1 ) unknown $end
$var tri1 1 * devclrn $end
$var tri1 1 + devpor $end
$var tri1 1 , devoe $end
$var wire 1 - e~output_o $end
$var wire 1 . c~input_o $end
$var wire 1 / d~input_o $end
$var wire 1 0 a~input_o $end
$var wire 1 1 b~input_o $end
$var wire 1 2 u3|c_nand~0_combout $end
$upscope $end
$upscope $end
$enddefinitions $end
#0
$dumpvars
0!
0"
0#
1$
1%
x&
0'
1(
x)
1*
1+
1,
1-
0.
1/
00
01
02
$end
#25000
1!
10
0&
#30000
1"
11
1&
12
0-
0%
#50000
0!
00
0&
02
1-
1%
#60000
0"
01
1&
#75000
1!
10
0&
#90000
1"
11
1&
12
0-
0%
#100000
0!
00
0&
02
1-
1%
#120000
0"
01
1&
#125000
1!
10
0&
#150000
1"
0!
11
00
1&
#175000
1!
10
0&
12
0-
0%
#180000
0"
01
1&
02
1-
1%
#200000
0!
00
0&
#210000
1"
11
1&
#225000
1!
10
0&
12
0-
0%
#240000
0"
01
1&
02
1-
1%
#250000
0!
00
0&
#270000
1"
11
1&
#275000
1!
10
0&
12
0-
0%
#300000
0"
0!
01
00
1&
02
1-
1%
#325000
1!
10
0&
#330000
1"
11
1&
12
0-
0%
#350000
0!
00
0&
02
1-
1%
#360000
0"
01
1&
#375000
1!
10
0&
#390000
1"
11
1&
12
0-
0%
#400000
0!
00
0&
02
1-
1%
#420000
0"
01
1&
#425000
1!
10
0&
#450000
1"
0!
11
00
1&
#475000
1!
10
0&
12
0-
0%
#480000
0"
01
1&
02
1-
1%
#500000
0!
00
0&
#510000
1"
11
1&
#525000
1!
10
0&
12
0-
0%
#540000
0"
01
1&
02
1-
1%
#550000
0!
00
0&
#570000
1"
11
1&
#575000
1!
10
0&
12
0-
0%
#600000
0"
0!
01
00
1&
02
1-
1%
#625000
1!
10
0&
#630000
1"
11
1&
12
0-
0%
#650000
0!
00
0&
02
1-
1%
#660000
0"
01
1&
#675000
1!
10
0&
#690000
1"
11
1&
12
0-
0%
#700000
0!
00
0&
02
1-
1%
#720000
0"
01
1&
#725000
1!
10
0&
#750000
1"
0!
11
00
1&
#775000
1!
10
0&
12
0-
0%
#780000
0"
01
1&
02
1-
1%
#800000
0!
00
0&
#810000
1"
11
1&
#825000
1!
10
0&
12
0-
0%
#840000
0"
01
1&
02
1-
1%
#850000
0!
00
0&
#870000
1"
11
1&
#875000
1!
10
0&
12
0-
0%
#900000
0"
0!
01
00
1&
02
1-
1%
#925000
1!
10
0&
#930000
1"
11
1&
12
0-
0%
#950000
0!
00
0&
02
1-
1%
#960000
0"
01
1&
#975000
1!
10
0&
#990000
1"
11
1&
12
0-
0%
